…
## All combinations of variables

To create a table with combinations of variables, use `expand` from the tidyr package. For example:



~~~r
> pg_df %>% expand(island, sex, common)
~~~
{:title="Console" .input}


~~~
# A tibble: 27 × 3
   island sex    common           
   <chr>  <chr>  <fct>            
 1 Biscoe FEMALE Gentoo penguin   
 2 Biscoe FEMALE Chinstrap penguin
 3 Biscoe FEMALE Adelie Penguin   
 4 Biscoe MALE   Gentoo penguin   
 5 Biscoe MALE   Chinstrap penguin
 6 Biscoe MALE   Adelie Penguin   
 7 Biscoe <NA>   Gentoo penguin   
 8 Biscoe <NA>   Chinstrap penguin
 9 Biscoe <NA>   Adelie Penguin   
10 Dream  FEMALE Gentoo penguin   
# … with 17 more rows
…
